Archive:  888.zip
  Length      Date    Time    Name
---------  ---------- -----   ----
        0  01-06-2009 11:49   888/
      163  01-06-2009 11:49   888/888.head
        0  04-25-2008 11:09   888/Matlab/
        0  04-25-2008 11:09   888/Matlab/Examples/
     2812  04-25-2008 11:09   888/Matlab/Examples/init_case6.m
     1957  04-25-2008 11:09   888/Matlab/Examples/init_case2.m
    10192  04-25-2008 11:09   888/Matlab/Examples/BV.m
        0  04-25-2008 11:09   888/Matlab/Src/
        0  04-25-2008 11:09   888/Matlab/Src/@spectral_field/
        0  04-25-2008 11:09   888/Matlab/Src/@spectral_field/private/
     1083  04-25-2008 11:09   888/Matlab/Src/@spectral_field/private/legtranOLs.m
     1117  04-25-2008 11:09   888/Matlab/Src/@spectral_field/private/legtranOLs.asv
      996  04-25-2008 11:09   888/Matlab/Src/@spectral_field/private/legtranOLa2.m
      967  04-25-2008 11:09   888/Matlab/Src/@spectral_field/private/legtranOLa.m
      950  04-25-2008 11:09   888/Matlab/Src/@spectral_field/private/legtranOLVs.m
      874  04-25-2008 11:09   888/Matlab/Src/@spectral_field/private/legtranOLVa.m
     1119  04-25-2008 11:09   888/Matlab/Src/@spectral_field/private/legtranOL2s.m
      993  04-25-2008 11:09   888/Matlab/Src/@spectral_field/private/legtranOL2Vs.m
      898  04-25-2008 11:09   888/Matlab/Src/@spectral_field/private/legtranOL2Va.m
     1148  04-25-2008 11:09   888/Matlab/Src/@spectral_field/private/legtranOHs.m
      981  04-25-2008 11:09   888/Matlab/Src/@spectral_field/private/legtranOHa.m
     1018  04-25-2008 11:09   888/Matlab/Src/@spectral_field/private/legtranOHVs.m
      889  04-25-2008 11:09   888/Matlab/Src/@spectral_field/private/legtranOHVa.m
     1178  04-25-2008 11:09   888/Matlab/Src/@spectral_field/private/legtranOH2s.m
     1018  04-25-2008 11:09   888/Matlab/Src/@spectral_field/private/legtranOH2a.m
     1043  04-25-2008 11:09   888/Matlab/Src/@spectral_field/private/legtranOH2Vs.m
      926  04-25-2008 11:09   888/Matlab/Src/@spectral_field/private/legtranOH2Va.m
     1761  04-25-2008 11:09   888/Matlab/Src/@spectral_field/private/legtranMMs.m
     1824  04-25-2008 11:09   888/Matlab/Src/@spectral_field/private/legtranMMs.asv
     1652  04-25-2008 11:09   888/Matlab/Src/@spectral_field/private/legtranMMa.m
     1714  04-25-2008 11:09   888/Matlab/Src/@spectral_field/private/legtranMMa.asv
     1751  04-25-2008 11:09   888/Matlab/Src/@spectral_field/private/legtranMMVs.m
     1672  04-25-2008 11:09   888/Matlab/Src/@spectral_field/private/legtranMMVa.m
     6694  04-25-2008 11:09   888/Matlab/Src/@spectral_field/test.m
     2270  04-25-2008 11:09   888/Matlab/Src/@spectral_field/spectral_field.m
     1634  04-25-2008 11:09   888/Matlab/Src/@spectral_field/shtrans.m
     1734  04-25-2008 11:09   888/Matlab/Src/@spectral_field/shtrana.m
     1597  04-25-2008 11:09   888/Matlab/Src/@spectral_field/shtranHs.m
     1225  04-25-2008 11:09   888/Matlab/Src/@spectral_field/set.m
     1832  04-25-2008 11:09   888/Matlab/Src/@spectral_field/plot.m
     1328  04-25-2008 11:09   888/Matlab/Src/@spectral_field/l2norm.m
     1743  04-25-2008 11:09   888/Matlab/Src/@spectral_field/helmholtz.m
     3129  04-25-2008 11:09   888/Matlab/Src/@spectral_field/grad1.m
     2840  04-25-2008 11:09   888/Matlab/Src/@spectral_field/grad.m
     1031  04-25-2008 11:09   888/Matlab/Src/@spectral_field/get.m
     2679  04-25-2008 11:09   888/Matlab/Src/@spectral_field/div.m
      974  04-25-2008 11:09   888/Matlab/Src/@spectral_field/display.m
     1488  04-25-2008 11:09   888/Matlab/Src/@spectral_field/del2inv.m
     1446  04-25-2008 11:09   888/Matlab/Src/@spectral_field/del2.m
     2804  04-25-2008 11:09   888/Matlab/Src/@spectral_field/curl.m
     5153  04-25-2008 11:09   888/Matlab/Src/@spectral_field/UVinv.m
     5119  04-25-2008 11:09   888/Matlab/Src/@spectral_field/PVinv.m
        0  04-25-2008 11:09   888/Matlab/Src/@slt_grid/
        0  04-25-2008 11:09   888/Matlab/Src/@slt_grid/private/
     1998  04-25-2008 11:09   888/Matlab/Src/@slt_grid/private/slt_extend.m
     1559  04-25-2008 11:09   888/Matlab/Src/@slt_grid/test.m
     5340  04-25-2008 11:09   888/Matlab/Src/@slt_grid/slt_particle.m
      884  04-25-2008 11:09   888/Matlab/Src/@slt_grid/slt_interp.m
     3485  04-25-2008 11:09   888/Matlab/Src/@slt_grid/slt_grid.m
     2154  04-25-2008 11:09   888/Matlab/Src/@slt_grid/init_case1.m
     1539  04-25-2008 11:09   888/Matlab/Src/@slt_grid/get.m
        0  04-25-2008 11:09   888/Matlab/Src/@gauss_grid/
        0  04-25-2008 11:09   888/Matlab/Src/@gauss_grid/private/
     1991  04-25-2008 11:09   888/Matlab/Src/@gauss_grid/private/shtraninitV.m
     1771  04-25-2008 11:09   888/Matlab/Src/@gauss_grid/private/shtraninit.m
     1114  04-25-2008 11:09   888/Matlab/Src/@gauss_grid/private/grule.m
     1143  04-25-2008 11:09   888/Matlab/Src/@gauss_grid/set.m
     1176  04-25-2008 11:09   888/Matlab/Src/@gauss_grid/lv_grid.asv
     1390  04-25-2008 11:09   888/Matlab/Src/@gauss_grid/get.m
     2383  04-25-2008 11:09   888/Matlab/Src/@gauss_grid/gauss_grid.m
     1276  04-25-2008 11:09   888/Matlab/Src/@gauss_grid/display.m
---------                     -------
   118619                     71 files
